{
  "images" : [
    {
      "idiom" : "universal",
      "filename" : "52a538fb9258cc2583c67f63d26b2c7e--bad-bunny-cantante-riri.jpg",
      "scale" : "1x"
    },
    {
      "idiom" : "universal",
      "scale" : "2x"
    },
    {
      "idiom" : "universal",
      "scale" : "3x"
    }
  ],
  "info" : {
    "version" : 1,
    "author" : "xcode"
  }
}